Thalles FA/simulation/qsim/FAA.msim.vcd
$comment
	File created using the following command:
		vcd file FAA.msim.vcd -direction
$end
$date
	Tue Dec 06 14:29:56 2022
$end
$version
	ModelSim Version 10.5b
$end
$timescale
	1ps
$end

$scope module faa_vhd_vec_tst $end
$var wire 1 ! a $end
$var wire 1 " b $end
$var wire 1 # cin $end
$var wire 1 $ cout $end
$var wire 1 % s $end

$scope module i1 $end
$var wire 1 & gnd $end
$var wire 1 ' vcc $end
$var wire 1 ( unknown $end
$var wire 1 ) devoe $end
$var wire 1 * devclrn $end
$var wire 1 + devpor $end
$var wire 1 , ww_devoe $end
$var wire 1 - ww_devclrn $end
$var wire 1 . ww_devpor $end
$var wire 1 / ww_a $end
$var wire 1 0 ww_b $end
$var wire 1 1 ww_cin $end
$var wire 1 2 ww_cout $end
$var wire 1 3 ww_s $end
$var wire 1 4 \cout~output_o\ $end
$var wire 1 5 \s~output_o\ $end
$var wire 1 6 \b~input_o\ $end
$var wire 1 7 \cin~input_o\ $end
$var wire 1 8 \a~input_o\ $end
$var wire 1 9 \cout~0_combout\ $end
$var wire 1 : \s~0_combout\ $end
$var wire 1 ; \ALT_INV_a~input_o\ $end
$var wire 1 < \ALT_INV_cin~input_o\ $end
$var wire 1 = \ALT_INV_b~input_o\ $end
$upscope $end
$upscope $end
$enddefinitions $end
#0
$dumpvars
0!
0"
0#
0$
0%
0&
1'
x(
1)
1*
1+
1,
1-
1.
0/
00
01
02
03
04
05
06
07
08
09
0:
1;
1<
1=
$end
#20000
1!
1/
18
0;
1:
15
13
1%
#30000
1"
10
16
0=
19
0:
05
14
03
12
0%
1$
#50000
0"
0!
00
0/
08
06
1=
1;
09
04
02
0$
#60000
1#
11
17
0<
1:
15
13
1%
#70000
0#
01
07
1<
0:
05
03
0%
#100000
1"
10
16
0=
1:
15
13
1%
#110000
1!
1/
18
0;
19
0:
05
14
03
12
0%
1$
#130000
0"
00
06
1=
09
1:
15
04
13
02
1%
0$
#140000
0!
0/
08
1;
0:
05
03
0%
#150000
1!
1"
1#
1/
10
11
17
16
18
0;
0=
0<
19
1:
15
14
13
12
1%
1$
#160000
0!
0"
0#
0/
00
01
07
06
08
1;
1=
1<
09
0:
05
04
03
02
0%
0$
#170000
1"
10
16
0=
1:
15
13
1%
#180000
1#
11
17
0<
19
0:
05
14
03
12
0%
1$
#190000
0#
0"
01
00
06
07
1<
1=
09
04
02
0$
#200000
1#
1!
11
1/
18
17
0<
0;
19
14
12
1$
#210000
0#
01
07
1<
09
1:
15
04
13
02
1%
0$
#230000
0!
0/
08
1;
0:
05
03
0%
